[
	 "Boris_Berezovsky_(businessman)",
	 "Paul_Graham_(computer_programmer)",
	 "John_Roberts",
	 "Ken_Griffey_(Sr)",
	 "James_McCartney",
	 "William_Gates_(Sr)",
         "Ruth_Rendell",
 	 "Vladimir_Potanin"
	 ]
