[
	 "Alisher_Usmanov",
	 "Roman_Abramovich",
	 "Digital_Sky_Technologies",
	 "Yuri_Milner",
	 "Mikhail_Prokhorov",
	 "Norilsk_Nickel",
	 "Polyus_Gold",
	 "Oleg_Deripaska",
	 "Peter_Mandelson",
	 "Vladimir_Potanin",
	 "Roustam_Tariko",
	 "Vitaly_Malkin",
	 "Annie_Laurie_Gaylor",
	 "Douglas_Carswell",
	 "Jafar_Panahi",
	 "Kathleen_Edwards",
	 "Najibullah_Zazi",
	 "Nassim_Nicholas_Taleb",
	 "Spencer_Bachus",
	 "Philip_Roth",
	 "Wendi_Deng_Murdoch",
	 "Amy_Chua",
	 "Aharon_Barak",
	 "Lisa_Bloom",
	 "Charlie_Savage",
	 "David_Milch",
	 "Arthur_Frommer",
	 "Cory_Booker",
	 "Frederick_M._Lawrence",
	 "Alexis_Ohanian",
	 "Neal_Stephenson",
	 "Alex_Kapranos",
	 "Bernard_Lagat",
	 "Amit_Singhal",
	 "Alexander_McCall_Smith",
	 "Jim_Steyer",
	 "Tony_Yayo",
	 "Darren_Rowse",
	 "Patti_Scialfa",
	 "Masaru_Emoto",
	 "Germaine_Greer",
	 "Marion_Nestle",
	 "Terry_Pratchett",
	 "Satoshi_Ishii",
	 "Ikuhisa_Minowa",
	 "Quinton_Jackson",
	 "Mario_Garnero",
	 "David_Rockefeller",
	 "Rodrigo_Pimentel",
	 "William_Cohen",
	 "Paul_Graham",
	 "James_McCartney",
         "Ruth_Rendell",
	 "Abigail_Van_Buren",
	 "Pauline_Phillips",
	 "Jeanne_Phillips"
	 ]
